{
    "photos": {
        "page": 1,
        "pages": 50,
        "perpage": 10,
        "total": 500,
        "photo": [
                  {
                  "id": "30091586106",
                  "owner": "113231763@N07",
                  "secret": "26961dc149",
                  "server": "5736",
                  "farm": 6,
                  "title": "Autumn Mists - Virginia Water",
                  "ispublic": 1,
                  "isfriend": 0,
                  "isfamily": 0
                  },
                  {
                  "id": "29835245510",
                  "owner": "42957889@N05",
                  "secret": "27d1e38e98",
                  "server": "8128",
                  "farm": 9,
                  "title": "Happy Day in the Park",
                  "ispublic": 1,
                  "isfriend": 0,
                  "isfamily": 0
                  },
                  {
                  "id": "29497900284",
                  "owner": "75327478@N04",
                  "secret": "881c76d950",
                  "server": "8622",
                  "farm": 9,
                  "title": "Leap of Death",
                  "ispublic": 1,
                  "isfriend": 0,
                  "isfamily": 0
                  },
                  {
                  "id": "29835749680",
                  "owner": "86954319@N04",
                  "secret": "bcf5cf6731",
                  "server": "7572",
                  "farm": 8,
                  "title": "Boulderland",
                  "ispublic": 1,
                  "isfriend": 0,
                  "isfamily": 0
                  },
                  {
                  "id": "30121827725",
                  "owner": "26156338@N07",
                  "secret": "ccc91195fe",
                  "server": "5671",
                  "farm": 6,
                  "title": "Red Rock Canyon, Waterton Lakes NP, Alberta Canada",
                  "ispublic": 1,
                  "isfriend": 0,
                  "isfamily": 0
                  },
                  {
                  "id": "29504672433",
                  "owner": "96106108@N07",
                  "secret": "d958390efc",
                  "server": "8558",
                  "farm": 9,
                  "title": "Hamburg II",
                  "ispublic": 1,
                  "isfriend": 0,
                  "isfamily": 0
                  },
                  {
                  "id": "29495151704",
                  "owner": "90534814@N05",
                  "secret": "dd19b01758",
                  "server": "5537",
                  "farm": 6,
                  "title": "Green Clouds",
                  "ispublic": 1,
                  "isfriend": 0,
                  "isfamily": 0
                  },
                  {
                  "id": "30037991161",
                  "owner": "77363333@N08",
                  "secret": "f85dba56f4",
                  "server": "5590",
                  "farm": 6,
                  "title": "Caney Fork Overlook (Blue Ridge Parkway, Asheville, North Carolina)",
                  "ispublic": 1,
                  "isfriend": 0,
                  "isfamily": 0
                  },
                  {
                  "id": "29502381924",
                  "owner": "33050285@N03",
                  "secret": "eb1e255757",
                  "server": "5672",
                  "farm": 6,
                  "title": "Sidewalk Champagne",
                  "ispublic": 1,
                  "isfriend": 0,
                  "isfamily": 0
                  },
                  {
                  "id": "29498040033",
                  "owner": "46870239@N06",
                  "secret": "526326b59a",
                  "server": "5064",
                  "farm": 6,
                  "title": "Tranquil Evening",
                  "ispublic": 1,
                  "isfriend": 0,
                  "isfamily": 0
                  }
                  ]
    },
    "stat": "ok"
}
