{
    "photos": {
        "page": 1,
        "pages": 51452,
        "perpage": 5,
        "total": "257256",
        "photo": [
                  {
                  "id": "30111531386",
                  "owner": "24838826@N07",
                  "secret": "3c19b27db4",
                  "server": "5316",
                  "farm": 6,
                  "title": "Grauhörnchen - Eastern Gray Squirrel - Sciurus carolinensis",
                  "ispublic": 1,
                  "isfriend": 0,
                  "isfamily": 0
                  },
                  {
                  "id": "29517844353",
                  "owner": "138310540@N03",
                  "secret": "7eaba87ffe",
                  "server": "5518",
                  "farm": 6,
                  "title": "IMG_8975",
                  "ispublic": 1,
                  "isfriend": 0,
                  "isfamily": 0
                  },
                  {
                  "id": "29517835483",
                  "owner": "145558581@N07",
                  "secret": "8d51ec14a5",
                  "server": "7512",
                  "farm": 8,
                  "title": "7201886880.jpg",
                  "ispublic": 1,
                  "isfriend": 0,
                  "isfamily": 0
                  },
                  {
                  "id": "29850877020",
                  "owner": "145558581@N07",
                  "secret": "c6804844fc",
                  "server": "5764",
                  "farm": 6,
                  "title": "1439836974.jpg",
                  "ispublic": 1,
                  "isfriend": 0,
                  "isfamily": 0
                  },
                  {
                  "id": "30111471766",
                  "owner": "143919671@N07",
                  "secret": "ecb5762828",
                  "server": "8130",
                  "farm": 9,
                  "title": "Just got a new cat tower. I think she loves it. via http://ift.tt/29KELz0",
                  "ispublic": 1,
                  "isfriend": 0,
                  "isfamily": 0
                  }
                  ]
    },
    "stat": "ok"
}
